12

5 6
25
3 4
4 0
0 5
4 4
4 0
1 3
2 1
0 2
4 1
3 3
0 5
4 3
2 5
3 5
1 1
2 3
0 3
4 2
0 2
1 4
1 2
2 4
3 0
2 3
1 3
16 1

7 5
20
5 4
5 1
5 3
5 4
0 0
2 2
3 3
4 0
1 1
1 2
6 0
3 3
0 1
5 3
0 0
0 2
4 3
4 1
1 2
1 0
10 1

9 10
14
0 0
1 1
8 8
3 2
7 1
6 7
0 6
4 1
6 9
7 5
8 9
6 9
0 1
5 5
8 2

14 15
6
9 1
5 13
4 2
9 14
7 13
5 11
5 2

8 7
24
3 2
7 6
0 4
2 5
2 0
4 6
1 1
0 6
5 6
4 4
7 2
1 0
5 0
3 3
4 1
5 1
3 6
3 5
4 6
3 6
6 0
7 5
5 4
6 0
39 33

14 11
14
7 4
0 9
7 5
12 2
11 6
1 6
1 4
12 9
5 6
0 9
12 6
13 1
5 7
6 6
57 9

14 14
8
1 9
3 9
11 3
10 3
11 6
3 5
12 5
10 2
6 2

8 6
6
3 3
7 2
5 1
4 2
3 5
4 4
12 2

6 5
7
1 1
5 1
5 3
2 2
0 4
3 4
0 3
8 2

5 11
7
1 4
2 5
1 1
1 0
1 5
2 8
3 10
4 2

6 7
5
1 2
4 5
4 0
1 1
3 1
3 1

7 5
26
2 3
3 0
5 0
4 0
4 2
5 2
6 0
5 3
4 1
2 4
5 3
0 4
1 3
5 3
2 4
6 4
0 3
0 3
6 0
3 2
6 0
6 2
2 4
0 0
0 1
6 4
40 10
