*** Life<Cell> 10x10 ***

Generation = 0, Population = 22.
0-0-00--00
0------000
---0000---
---0000---
---0000---
----------
----------
----------
----------
----------

Generation = 5, Population = 41.
.-*0.*----
****.--.1-
.1-*..**0*
--.....-1*
01-0-**.--
---1..11-1
0-0-..--00
--0*--*0--
--0-11-0--
---0000---

Generation = 10, Population = 42.
.-******.-
.*...*-.*1
*.0.*...-*
1*.....*-*
*.1*-....1
-.*.....1*
1**-**-01.
-...-...00
-1*-*.-*.-
-1-.*1.-.0

*** Life<Cell> 4x4 ***

Generation = 0, Population = 12.
0000
0000
0000
----

Generation = 3, Population = 8.
0**0
----
1111
----

Generation = 6, Population = 6.
*..*
1--1
.--.
1--1

Generation = 9, Population = 6.
....
.00.
*--*
-**-

Generation = 12, Population = 6.
....
.11.
.11.
1..1

*** Life<Cell> 1x1 ***

Generation = 0, Population = 1.
0

Generation = 1, Population = 0.
-

*** Life<Cell> 15x15 ***

Generation = 0, Population = 29.
---------------
---------------
---------------
---------------
---------------
---------------
---------------
---------------
---------------
---------------
---------------
000000---------
00--000000-----
0000000000-----
----------00000

Generation = 4, Population = 57.
---------------
---------------
---------------
---------------
---------------
---------------
---------------
000000---------
11--110000-----
0*00*00111-----
*----*----10000
0-*-*010..-----
**-1*0-*.-----*
-**-..1-.-0*11-
1*--1.-.--*-00.

Generation = 8, Population = 88.
---------------
---------------
---------------
000000---------
11--110000-----
0*00*00111-----
*----.----10000
-****1-0..-----
.*00.1-*.*00*0*
-*0-*-*..1-----
*-1-*.-*.-.*--.
*....-*0..--*-0
*.0*.1-*.-11*1*
0**0.*-1*.-*.*1
..0-1.-*--*.-1*

Generation = 12, Population = 100.
11--110000-----
0*00*00111-----
*----*----10000
-**-*010..-----
..-1*1-*.-0---*
1.-0..1..*-.-1-
..-01.--*-.---.
0.***---.*0----
.*--..******.-*
-.*0..*.*...-11
*-.-..1..1..--.
*.*..0*-..1-.1*
.*-..***.1**.**
0*.1..-.**1.***
..*1****-1..--.

*** Life<Cell> 9x12 ***

Generation = 0, Population = 27.
-00-00000000
-0000-------
----000000--
-0-000------
------------
------000---
------------
------------
------------

Generation = 5, Population = 47.
-1--0-100-0.
.1*0--10-0-0
10-.*11*-10-
10-.*0-*.---
--1*-.*-*-1-
01-00-.-...-
-----1-----0
0--11--010--
-0-000------

Generation = 10, Population = 40.
..-1-01-.--.
.....-.*.-*-
..-....*0.**
-01**0**.-00
-.....*.*1*.
..--.-.-...*
1.-.*--.-.*1
1**..11.-.-.
10*1..*-*0-*

Generation = 15, Population = 39.
..-*-1...-**
..***-*.*-.1
.***..*..*.*
..1.*-*..1-1
-.*...*...**
.*0-.-*-..**
.*-..--.1..*
......-***.*
--.....1.*-.

Generation = 20, Population = 25.
..1..1..***.
.....*...-.*
...*.......*
...*.-.....*
-.....*.....
..-1*-.-....
..-.**..*...
....**-***..
--.....***..

*** Life<Cell> 6x6 ***

Generation = 0, Population = 15.
-00000
------
----0-
--0000
--00--
--000-

Generation = 5, Population = 15.
-110.*
0-*.1.
11--.-
0.---*
*.----
-***.-

Generation = 10, Population = 12.
-.*-*.
.....*
*.*-.-
-.**1.
.....*
0**..-

Generation = 15, Population = 7.
-.....
...*..
...-.*
...*.*
...*.*
.....0

Generation = 20, Population = 0.
-.....
......
...-..
......
......
.....-
