10

11 13
11
5 4
9 6
10 7
4 11
1 1
8 5
9 5
10 1
1 11
8 10
4 9
1 1

10 10
12
5 9
9 2
9 0
6 9
5 3
0 3
4 5
5 9
6 0
0 2
2 6
7 2
4 1

11 10
10
5 4
2 8
6 2
1 4
4 6
5 8
1 4
2 0
7 5
4 2
2 2

11 15
13
2 14
2 1
10 12
8 2
9 6
6 3
1 13
5 8
2 1
0 11
6 1
4 12
4 14
4 1

10 15
2
7 4
0 6
3 1

3 9
5
0 6
0 4
1 5
0 5
0 2
1 1

7 37
28
2 10
1 12
6 19
1 26
6 25
6 33
2 29
3 2
5 26
5 10
4 11
5 19
1 24
3 26
6 32
0 4
2 35
1 33
3 22
6 4
3 34
2 29
1 10
1 24
2 28
2 22
1 1
4 23
4 4

6 13
20
5 6
0 5
0 12
4 5
0 9
3 10
4 2
5 7
0 1
4 11
1 8
1 8
2 4
1 0
3 4
1 5
4 5
3 0
1 11
5 7
8 5

15 14
5
13 4
4 1
9 11
11 5
1 0
8 3

13 15
11
11 13
0 10
4 13
1 11
12 5
5 4
2 0
1 10
11 1
2 3
5 4
1 1
