*** Life<ConwayCell> 5x11 ***

Generation = 0, Population = 9.
..*........
...**......
.....*.*.*.
...*.......
.*......*..

Generation = 2, Population = 7.
...**......
..***......
...**......
...........
...........

Generation = 4, Population = 6.
...*.......
.**.**.....
...*.......
...........
...........

*** Life<ConwayCell> 9x4 ***

Generation = 0, Population = 10.
....
...*
....
*...
.*..
*...
***.
....
*.**

Generation = 2, Population = 7.
....
....
....
....
**..
..*.
*.*.
**..
....

Generation = 4, Population = 7.
....
....
....
....
.*..
*.*.
*.*.
**..
....

*** Life<ConwayCell> 11x10 ***

Generation = 0, Population = 9.
..........
....*.....
*.......*.
..........
..*...*...
....*...*.
..*.......
.....*....
..........
..........
..........

Generation = 2, Population = 0.
..........
..........
..........
..........
..........
..........
..........
..........
..........
..........
..........

*** Life<ConwayCell> 11x15 ***

Generation = 0, Population = 12.
...........*...
.............*.
.*............*
...............
............*.*
........*......
.*.*...........
...............
..*............
......*........
............*..

Generation = 1, Population = 2.
...............
...............
...............
.............*.
...............
...............
...............
..*............
...............
...............
...............

Generation = 2, Population = 0.
...............
...............
...............
...............
...............
...............
...............
...............
...............
...............
...............

Generation = 3, Population = 0.
...............
...............
...............
...............
...............
...............
...............
...............
...............
...............
...............

Generation = 4, Population = 0.
...............
...............
...............
...............
...............
...............
...............
...............
...............
...............
...............

*** Life<ConwayCell> 10x15 ***

Generation = 0, Population = 2.
......*........
...............
...............
...............
...............
...............
...............
....*..........
...............
...............

Generation = 1, Population = 0.
...............
...............
...............
...............
...............
...............
...............
...............
...............
...............

Generation = 2, Population = 0.
...............
...............
...............
...............
...............
...............
...............
...............
...............
...............

Generation = 3, Population = 0.
...............
...............
...............
...............
...............
...............
...............
...............
...............
...............

*** Life<ConwayCell> 3x9 ***

Generation = 0, Population = 5.
..*.***..
.....*...
.........

Generation = 1, Population = 6.
....***..
....***..
.........

*** Life<ConwayCell> 7x37 ***

Generation = 0, Population = 26.
....*................................
.*........*.*...........*.*......*...
..........*...........*.....**.....*.
..*...................*...*.......*..
...........*...........*.............
..........*........*......*..........
....*..............*.....*......**...

Generation = 4, Population = 6.
.....................................
.......................*.............
......................*.*............
......................*.*............
.......................*.............
.....................................
.....................................

*** Life<ConwayCell> 6x13 ***

Generation = 0, Population = 17.
.*...*...*..*
*....*..*..*.
....*........
*...*.....*..
..*..*.....*.
......**.....

Generation = 5, Population = 10.
.............
....**.......
...*..*......
....*.*......
....*..*.....
.....**......

*** Life<ConwayCell> 15x14 ***

Generation = 0, Population = 5.
..............
*.............
..............
..............
.*............
..............
..............
..............
..............
...........*..
..............
.....*........
..............
....*.........
..............

Generation = 3, Population = 0.
..............
..............
..............
..............
..............
..............
..............
..............
..............
..............
..............
..............
..............
..............
..............

Generation = 6, Population = 0.
..............
..............
..............
..............
..............
..............
..............
..............
..............
..............
..............
..............
..............
..............
..............

*** Life<ConwayCell> 13x15 ***

Generation = 0, Population = 10.
..........*....
..........**...
*..*...........
...............
.............*.
....*..........
...............
...............
...............
...............
...............
.*...........*.
.....*.........

Generation = 1, Population = 4.
..........**...
..........**...
...............
...............
...............
...............
...............
...............
...............
...............
...............
...............
...............
