*** Life<Cell> 6x6 ***

Generation = 0, Population = 12.
-00-0-
----00
-00---
0--0-0
------
--00--

Generation = 5, Population = 22.
.****-
-0100-
1**.1*
---0..
0*10-0
0-*--*

*** Life<Cell> 9x9 ***

Generation = 0, Population = 27.
-0-000000
0--0--0-0
0--00----
--00--0--
00----00-
----0----
---0--0-0
-0-------
----0----

Generation = 4, Population = 35.
-10--**0-
*0-----0-
-1-.*-*-1
1*****.-1
---.1----
---*--1--
0-000-001
--01-00--
-1-.---1-

Generation = 8, Population = 37.
***1-***0
*.1-*111-
-1*..-.0.
......*1*
*.-...-*-
*--.*1*--
-100.---*
-0-*-.*..
-1-.11--*

Generation = 12, Population = 42.
.***-***-
*.11.*..*
1*.*...-.
*..*.*.1.
***.**-.0
*--...*0-
1*1-**.1.
.*0*****.
-.1*..-..

*** Life<Cell> 8x7 ***

Generation = 0, Population = 6.
--0----
-0-----
--0----
-------
-------
---0---
------0
-0-----

Generation = 3, Population = 15.
-0---0-
----0--
-0---0-
------0
-------
--0---0
-0-0-0-
0-0-0-0

Generation = 6, Population = 14.
--0----
---0-0-
0-0-0-0
-----0-
--0---0
---0-0-
----0--
---0---

Generation = 9, Population = 12.
-0-0-0-
0---0--
-0---0-
----0-0
-------
0------
-------
0-0----

*** Life<Cell> 8x6 ***

Generation = 0, Population = 17.
-00---
-00-0-
0--00-
--0-0-
0-----
0-----
--00--
0-0--0

Generation = 3, Population = 20.
-11---
--0-10
0---1-
0---10
-000*-
----1-
0---*-
-011--

Generation = 6, Population = 23.
0**-0-
0-.*--
.01.-1
*1-1.1
*.--.-
.*-1--
1**-.1
11-.1-

Generation = 9, Population = 14.
-..---
*-..*-
.0..*.
.1*-..
..-1.-
..-1.-
-..**1
---**0

Generation = 12, Population = 15.
0*.*--
.-..*1
.-....
.-.-..
..-**-
...-*-
1*.*.-
1*1..0

Generation = 15, Population = 13.
-...-*
.0..**
.-*.**
.-**..
..0..1
...-..
-....-
-...*1

Generation = 18, Population = 11.
-...1.
.-..**
.-*.**
.*...*
..-*.-
..**..
-.....
-.....

*** Life<Cell> 9x5 ***

Generation = 0, Population = 15.
0----
-000-
000-0
0-0--
--0--
-0---
-----
0-0--
-0---

Generation = 4, Population = 19.
*0-0-
1-.*-
0*.*-
----.
-*.-1
--10-
1-1-1
1.0--
-*1--

*** Life<Cell> 9x8 ***

Generation = 0, Population = 17.
0-------
----0--0
0---0-0-
---0000-
--0----0
-----00-
-----0--
-------0
-----0--

Generation = 5, Population = 39.
10--.---
*01-.-*.
-00-*-.0
****1-11
0-0--0*-
--*0*-.0
1--11.--
0-0010.1
01*0--0.

*** Life<Cell> 6x8 ***

Generation = 0, Population = 13.
0---0000
0-0--0--
-----00-
0-------
--------
--0---0-

Generation = 5, Population = 28.
--0**.1*
*-.1.-0*
-*--*-*0
0000-.*0
10-0--*-
10---110

Generation = 10, Population = 23.
*-.*..-.
*-..*-.*
1..1*-*-
0-1-1*.-
.-**10.*
*-1-***-
