*** Life<FredkinCell> 12x37 ***

Generation = 0, Population = 23.
---0-----------------0---------------
----------00-----0----------0-------0
----0--------------0-----------------
----------0--------------------------
-0------------0-----------0---------0
------0------------------------------
-------------------------------------
------0----0-----------------0-----0-
-------------------0-----------------
-------------------------------------
------------------0--------0---------
------------------------------0------

Generation = 8, Population = 77.
---1-------1-0-----1---------0-------
--01--1--1--------020----1--0-0-----3
-23--------00-3---2-------1---------2
--2-------3-------0-----------1------
----230--0--------51--1-----4-0---0--
2---------22--0--0----------0-0-----1
---3--------------3--0-----0---------
0--0----------1----0-1-----2---4-----
---2-------1-------0-2-----1---------
------2---1------1----------01-----10
----0-----0---------------0--------0-
------0---0-----------0-------------1

*** Life<FredkinCell> 3x7 ***

Generation = 0, Population = 3.
-----00
-0-----
-------

Generation = 1, Population = 9.
-0--011
0-0--00
-0-----

*** Life<FredkinCell> 17x31 ***

Generation = 0, Population = 7.
--------------0----------------
-------------------------------
-------------------------------
-------------------------------
-------------------------------
------------------------0------
-------------------------------
-------------------------0-----
-------------------------------
-------------------------------
----------0--------------------
------------0------------------
-------------------------------
--------------0----------------
-------------------------------
-----------------------------0-
-------------------------------

Generation = 2, Population = 22.
------------0-0-0--------------
-------------------------------
--------------0----------------
------------------------0------
-------------------------------
----------------------0--10----
-------------------------------
-----------------------01--0---
----------0--------------------
------------0------------0-----
--------0---1------------------
----------1--------------------
----------0--------------------
----------------0------------0-
-------------------------------
--------------0------------0---
-------------------------------

*** Life<FredkinCell> 6x7 ***

Generation = 0, Population = 10.
--0--00
---00--
-----0-
-0-----
-0---00
-------

Generation = 3, Population = 27.
---1011
0--1122
0212-00
-10-1-0
-1-0--3
0-0-000

*** Life<FredkinCell> 7x37 ***

Generation = 0, Population = 26.
----0--------------------------------
-0--------0-0-----------0-0------0---
----------0-----------0-----00-----0-
--0-------------------0---0-------0--
-----------0-----------0-------------
----------0--------0------0----------
----0--------------0-----0------00---

Generation = 4, Population = 64.
0-------1-31----------01----02-----2-
-----01-2---2-0-0--01-1-2---300--0---
------0-------1---00----3-2----0---1-
2-----0-----------1---2---1---------0
-------0-------0---------0-1----00---
-1----1-----0-00---1--000-----1--1---
0-------1-10---0-----20------1-----21

*** Life<FredkinCell> 6x13 ***

Generation = 0, Population = 17.
-0---0---0--0
0----0--0--0-
----0--------
0---0-----0--
--0--0-----0-
------00-----

Generation = 5, Population = 32.
0-1-2--0-1-3-
-2-0-32-11--2
2-0--1--2-01-
-01--------0-
4-----1-0--02
10---3---1--0

*** Life<FredkinCell> 29x10 ***

Generation = 0, Population = 9.
----------
------0---
----------
----------
----------
----------
----------
-0--------
----------
----------
----------
---------0
----------
-0--------
----------
----------
----------
0---------
----------
----------
----------
--0-----0-
----------
----------
----------
----------
----------
---------0
------0---

Generation = 3, Population = 76.
----0---0-
---0-0-0-0
----0-0-0-
-----0-0--
-0----0---
0-0-------
-0-0------
--0-0-----
-0-0-----0
0-0-----0-
-------0--
0-0---0---
-0-0---0--
--0-0---0-
00-0-----0
110-------
-00-------
---0------
--------0-
---0---0-0
--0-0-0-0-
-0-0---0--
0-0-0-0-0-
-0-0---0-0
--0-----00
------0-0-
-----0----
----0-0-0-
---0---0--

*** Life<FredkinCell> 8x10 ***

Generation = 0, Population = 10.
-----0----
--0-----0-
----------
-----0-0--
----------
0-----0---
-----0-0--
---------0

Generation = 1, Population = 28.
--0-0-0-0-
-0-0-0-0-0
--0--0-00-
----0---0-
0----000--
-0--------
0---0-0-00
-----0-00-

Generation = 2, Population = 33.
---0-0-0--
0---0101--
-----1----
0-00-00010
-----1-1--
0-0-00-000
---0-0-0-1
0-----01--

*** Life<FredkinCell> 1x31 ***

Generation = 0, Population = 14.
-0-0-0--000-000-00-0-------00--

Generation = 3, Population = 17.
0-0-012--0-----03--1--0-0121121

Generation = 6, Population = 14.
--0-11---01--131-2--2--1--2-1-2

Generation = 9, Population = 13.
--1-4----1--1-325--3-32-3-31---
