20

11 85
3
3 13
3 71
3 62
6 186

3 15
7
1 3
2 9
0 5
1 10
1 9
0 5
0 13
45 94

9 35
4
1 5
4 6
0 10
5 17
68 83

4 19
2
0 7
1 8
17 58

3 69
10
2 20
2 56
1 27
2 30
1 18
0 33
1 64
1 2
1 53
1 47
6 165

4 3
5
0 1
3 2
1 0
3 1
1 1
37 138

12 5
10
9 1
8 0
5 4
7 0
7 3
0 4
4 0
3 2
7 0
0 4
88 19

10 21
4
4 12
5 7
1 3
9 20
84 139

13 91
1
7 19
14 162

11 79
9
10 26
6 45
4 29
1 24
9 36
7 16
8 31
5 40
0 12
61 181

9 91
2
7 20
5 18
72 151

12 44
8
6 39
0 30
11 13
10 14
9 40
0 30
11 23
0 31
10 113

13 44
1
11 6
15 38

3 50
6
2 12
1 14
2 37
2 19
2 45
0 41
27 177

3 31
7
2 13
0 28
1 5
1 24
1 18
1 5
0 11
38 135

14 66
4
4 38
10 44
6 12
6 34
15 142

14 49
1
1 16
96 57

11 37
9
7 24
10 31
3 4
1 2
1 0
5 29
7 31
3 27
8 12
40 34

13 8
7
6 0
8 5
0 3
6 3
10 2
8 3
0 6
85 41

1 31
6
0 8
0 3
0 1
0 14
0 24
0 24
68 58
