*** Life<Cell> 12x37 ***

Generation = 0, Population = 23.
---0-----------------0---------------
----------00-----0----------0-------0
----0--------------0-----------------
----------0--------------------------
-0------------0-----------0---------0
------0------------------------------
-------------------------------------
------0----0-----------------0-----0-
-------------------0-----------------
-------------------------------------
------------------0--------0---------
------------------------------0------

Generation = 8, Population = 133.
.-1*1*-.0-11-0.-*-01-0---*.**0----*-.
--01---*11.1..*-0*0--.1-----0*0--0--*
---.**1*--*0-.1-1*1-11------------1--
--*----0---.-11*-111----------1----**
-*0***0--000.-----.*0-1-----*-0---00.
*---.1---01*1-0---1*--------0.----.--
---*0-----01----0*...0--------*------
0--0----------1----0-1----0*-..*0----
---*-------1-..-.1.--*---------------
------*---1----.--1*-0------0-**---10
----0-----0-----1--***1*--0---0---1--
------0---0------0---10----------***-

*** Life<Cell> 14x20 ***

Generation = 0, Population = 14.
--00----------0-----
--------------------
--------------------
0-0--------0--------
--------------------
--------0----0------
--------0-----------
-0------------------
----------------0---
--------------------
--------0---0-------
---------0----------
--------------------
--------------------

Generation = 2, Population = 45.
01**10------0-0-0---
0-1--------0--------
--10----------0-----
--0-0---00----------
--------1-----------
000---0---0----0----
------0---0-----0---
---0----1----0------
------------0-0---0-
-0-------0----------
------0-------0-0---
-------0---0--------
--------0---0-------
---------0----------

Generation = 4, Population = 48.
0-**1-10--0-------0-
---1----0----0------
--.*----1-----0-----
01*-0-01-------0----
--00----.-----0-0---
----0----1--0----0--
----0---*-----------
001--0---1-0--------
------------0-------
--------1----0------
----0-------0---0---
-0---0-------0------
----------------0---
---------0----------

Generation = 6, Population = 94.
01.*.-**010-0-0-0-0-
*-1-00-0--10--------
11..00-0.---0-0---0-
--*-00*.----0-------
10-*-0--*---1---0-0-
--*-*1--11*---1----0
---1---1*11-1-0-0---
--.--------00----0--
--------1-0-0-0-0---
0-0---0--10--0-0----
--0---0---0-0---0-0-
-------000-0-0-0----
----0-------0-0-0-0-
-0---0-0-0-0-0------

*** Life<Cell> 17x31 ***

Generation = 0, Population = 7.
--------------0----------------
-------------------------------
-------------------------------
-------------------------------
-------------------------------
------------------------0------
-------------------------------
-------------------------0-----
-------------------------------
-------------------------------
----------0--------------------
------------0------------------
-------------------------------
--------------0----------------
-------------------------------
-----------------------------0-
-------------------------------

Generation = 2, Population = 22.
------------0-0-0--------------
-------------------------------
--------------0----------------
------------------------0------
-------------------------------
----------------------0--10----
-------------------------------
-----------------------01--0---
----------0--------------------
------------0------------0-----
--------0---1------------------
----------1--------------------
----------0--------------------
----------------0------------0-
-------------------------------
--------------0------------0---
-------------------------------

*** Life<Cell> 9x21 ***

Generation = 0, Population = 11.
----------------00---
----0---------------0
---------------------
----------------0----
---------------------
-----------------0---
0--------------------
-------------------0-
0----0-------0-------

Generation = 1, Population = 34.
----0----------0110-0
---0-0----------00-0-
----0-----------0---0
---------------0-0---
----------------00---
0---------------0-0--
-0---------------0-0-
-----0-------0----0-0
-0--0-0-----0-0----0-

Generation = 2, Population = 32.
--------------01**10-
--0---0---------1-0-0
----------------10---
----0---------0--10-0
0--------------------
---------------01----
--0--0-------0-------
---------------------
0-00-0-0---0-0-0-----

Generation = 3, Population = 60.
--0---0------01-*.*1-
-0-0-0-0------0---10-
--0-0-0-------00--0--
0--0-0-------0-0--1--
-0--0---------00000-0
0-0--0-------001*0---
-0-00-0-----0-000----
0--0---0---0---0-----
--11----0-0-----0----

Generation = 4, Population = 38.
------------01--.**-0
0---0---0-------10*-0
0---------------10---
------------0------00
0----0-------0--11---
----0--------1--.---0
0-0-10-------0-------
---------------10----
00*-0------------0---

Generation = 5, Population = 67.
0---0---0--01*1-*.*-1
10-0-0-0-0--00-0--.-1
10--0---0---0--0---0-
-----0-----0------111
-0----0------100**00-
--0010------0-0-.0-0-
-----10-----01000---0
-0---0-------00*1----
1-.--0---------0--0--

Generation = 6, Population = 69.
1---------01*.*1...-*
*---------0-1-01--.-*
--0--0------1-011--10
0-------0-0--00-0---*
0--000-0---0-*1-*.11-
--1---0----01--1.101-
-000-*10---0-*-1-----
--0-0---------1.-00-0
--.-010------0-1-0-0-

Generation = 7, Population = 99.
*0-------0--*.*-...1.
.00--0---010--1*--.-*
-0-00-0-0--0*01*-00*1
10000---------10-111*
10-1-10----10.-0*.---
0-*01010--01*1-*.*1-0
01-11**10-010*0*0--00
--1010-0---0-0-*1-10-
--.1--10----0-0--10--

Generation = 8, Population = 51.
*----0--01--.**-...-.
.11---------1-*.10.0*
-----0------*--.--1.*
--------0------10-***
*------------.-1..-1-
--.-*----0--.-0..**11
-*-*-..-1---1.-.--0--
0-*-*------1-1-.-0---
--**--*-0----0---*---

Generation = 9, Population = 91.
.-0-0-001*0-.**1...1.
.**0----00-0*0***1*1*
-00-0-0-0--0.01.--*..
1----0-0-0--0-1-1-*.*
.0--0---00---.-*..1-0
00.-.0----0-.1-..*.**
-*0*1..1-----*0.-01-0
-0.-*00---0-0*1.11---
10**-1.--0-0010-0.0--

Generation = 10, Population = 84.
.-10--1-*.1-...-.*.**
...10---1-1-.-..*-.**
---0-0-01001.-*.--..*
-00-0-0--10--0*1--*..
.101-1--1---0*-**.*1-
11.0.-100--1.*-.**..*
-.-*-..-1----.-*-1*01
--.0.11----1-.*.--1-0
*1**0**-0-011*--1.-0-

*** Life<Cell> 6x7 ***

Generation = 0, Population = 10.
--0--00
---00--
-----0-
-0-----
-0---00
-------

Generation = 3, Population = 27.
---1011
0--11**
0*1*-00
-10-1-0
-1-0-*.
0-0-000

*** Life<Cell> 12x20 ***

Generation = 0, Population = 13.
--------------------
-------------0------
--------------0-----
-----------0-0-0----
--------------------
---------0----------
---0----------------
--------------0----0
--------------------
--------------------
---0------0--------0
-0------------------

Generation = 3, Population = 88.
---------------0----
----------------0---
-------------0------
---0------0-0-0-0-0-
--0-0--0---0-010-0-0
-0-0-00-0---01110-0-
0-0-0-00-0--000000--
-0---0--0--0-0-011-1
-0---------00-0-000-
010--0--0-0-00-0-00-
0-000-00-0-0-00-0--1
01--00--0---0----0-0

Generation = 6, Population = 77.
---0------0-0-0-0-0-
-------0-0----00-0-0
-0---0--0---0-1-0---
-------0---011.*0--0
-------1------*---00
-0-1-----01--1*1--0-
-1------11------0--0
-1-1-0--0--*01---.*1
---0--0--------0----
-.-0-0-1--0--01--10-
----00..-0---1-*0-0*
-.---1-1-0--0-*-01-.

Generation = 9, Population = 79.
--0-00---0---------0
----0---0------1---1
-00100--------.---1-
0--1--0.0--.....1--1
-0-0-0-.---00-.-0---
----------.--...1**0
---0--0--1*00----001
-.0.00-0-0*.-.-0-..-
-0-0---------001--1-
0.---------001.*-.11
---01*.*0--0-.-.0--*
-.0-0*1---0-00**0.1.

*** Life<Cell> 8x8 ***

Generation = 0, Population = 3.
--------
--------
--------
--------
0--0----
-----0--
--------
--------

Generation = 1, Population = 11.
--------
--------
--------
0--0----
-00-00--
0--00-0-
-----0--
--------

Generation = 2, Population = 12.
--------
--------
0--0----
-----0--
011--1--
---1---0
0--0----
-----0--

Generation = 3, Population = 33.
--------
0--0----
-00-00--
-000010-
1-*-0*00
-0-*000-
-00100-0
0--00-0-

Generation = 4, Population = 8.
0--0----
-----0--
--------
--------
--.-1.-1
-1-.---0
--------
-----0--

Generation = 5, Population = 25.
-00-00--
0--00-0-
-----0--
----0--0
-1.0-.0*
0-0.0-01
-0---0-0
----0-0-

*** Life<Cell> 6x5 ***

Generation = 0, Population = 6.
-----
--00-
---0-
-----
-00--
-0---

Generation = 1, Population = 15.
--00-
-01-0
---10
-000-
0-10-
01---

*** Life<Cell> 5x7 ***

Generation = 0, Population = 2.
-------
0------
-------
---0---
-------

Generation = 2, Population = 6.
-------
0-00---
-------
00---0-
-------
