8

14 8
8
0 6
8 7
13 0
3 6
5 5
2 7
1 2
4 6
7 3

3 8
9
0 7
1 3
0 3
1 7
0 1
0 6
2 7
0 0
2 7
17 5

5 12
23
4 1
1 11
0 10
0 9
2 6
0 9
0 11
1 2
3 0
0 5
0 4
2 10
0 8
3 7
3 11
3 2
3 9
4 8
2 1
4 10
2 6
3 5
4 9
8 8

12 13
43
5 1
7 4
4 2
6 4
11 5
5 4
10 10
0 10
6 0
5 0
0 3
8 6
6 3
4 5
4 4
9 12
3 12
6 3
10 4
3 12
8 8
1 12
3 12
6 10
10 6
8 2
7 10
6 6
3 8
5 8
4 4
5 2
2 7
0 10
1 1
8 12
3 2
1 5
9 8
3 0
3 5
8 9
8 11
17 4

11 9
32
0 0
2 5
7 2
6 6
4 5
5 2
2 1
9 0
6 7
8 3
5 1
9 3
3 7
8 4
4 6
3 7
5 0
3 7
9 1
6 1
4 4
4 4
6 8
5 8
0 8
1 1
6 3
6 8
4 7
1 5
4 7
3 7
19 8

13 6
8
5 1
8 5
2 4
10 5
10 4
8 2
8 1
4 1
1 7

4 3
6
2 2
3 2
0 1
1 2
2 2
3 2
8 8

5 15
2
3 13
3 8
18 4
