*** Life<FredkinCell> 15x14 ***

Generation = 0, Population = 9.
--------------
-------------0
--------------
--------------
--------------
--0-----------
--------------
-------0------
---0----------
0-------------
-0------------
------------0-
-0------------
0-------------
--------------

Generation = 4, Population = 26.
--------------
--0------0-0-0
--------------
-------0------
---0----------
------1------0
-0------------
---0-------00-
-0-----1------
0---0---------
-0---0--------
-------00---0-
-0-0-0--------
--0-0---------
--------------

Generation = 8, Population = 33.
---0----------
0-0--1-0------
-0------------
------------1-
-0------------
0---2-----0--2
--------------
-------------0
---3-------1--
0-----2-2----0
-0---2---1----
----1---2---0-
-0---1---1----
0-0---2-2-----
---0----------

Generation = 12, Population = 60.
-------1------
00-2-100-011-1
-0-1-0--------
--------1---21
-0---2-----1--
0---21-1-1-3-2
-----0---0----
----2---00-2--
-----1---1---2
--0-0-2-20-130
---1-----1---1
0---1--------1
---------1-0-1
0-0---2---0-01
-------0------

*** Life<FredkinCell> 14x7 ***

Generation = 0, Population = 15.
-------
--00---
------0
----0--
-0-----
---0---
------0
-------
-0-----
00--0--
-------
--00---
-------
--0---0

Generation = 1, Population = 48.
--00---
-0110-0
--0000-
-0-0-00
0-000--
-00-0-0
---0-0-
-0----0
-10-0--
1-00-0-
00000--
-0110--
---0--0
-0-0-0-

Generation = 2, Population = 29.
------0
01---0-
-0--1-0
------1
---1---
-1--10-
----0-0
01-00--
---0--0
2-1---0
-1-----
--2--00
-------
0--1---

*** Life<FredkinCell> 9x9 ***

Generation = 0, Population = 5.
---------
0--------
-----0---
0--------
---------
---------
--0------
---------
0--------

Generation = 1, Population = 14.
0--------
-0---0---
----0-0--
-0---0---
0--------
--0------
-0-0-----
0-0------
-0-------

Generation = 2, Population = 9.
-----0---
--0------
---0---0-
--0------
--0--0---
0--------
----0----
---------
---------

Generation = 3, Population = 28.
--0-0-0--
-0---0-0-
--0-0-0-0
-01--0-0-
00100-0--
-00-00---
0--0-0---
----0----
---------

Generation = 4, Population = 14.
-----0---
0-0-0----
-01------
--2-0----
1--------
0--------
-----10--
0--------
----0----

Generation = 5, Population = 30.
0-0---0--
-01------
-120-----
0-3--0---
201-0----
10---00--
----0210-
-0--000--
0--0-0---

Generation = 6, Population = 25.
-010-0-0-
--2---0--
---100---
1-----0--
31---00--
----0----
0--0---10
--0------
--0-01---

Generation = 7, Population = 44.
0121--0-0
--3000---
0--2-10--
2--00010-
-21--1-0-
-0----000
-0----121
001-00-00
-01-120--

Generation = 8, Population = 19.
1-3------
------0-0
11---2---
3-----2-0
--2--2---
1--------
----0---2
1--------
-----31-0

Generation = 9, Population = 32.
---1--0-0
-03------
-22-0-0--
4-3--0---
-2-00---0
-00-00--0
---0-2-2-
-0--000--
0---142--

Generation = 10, Population = 26.
-1--00---
0---0---0
--3--2-0-
--4-0---0
-3-1-2-01
1-1---0-1
------1--
--1------
---0-5-0-

Generation = 11, Population = 38.
--31-10-0
--3010---
12420---0
--50-0-01
----0-012
-0----102
0----2222
-0---000-
--------0

*** Life<FredkinCell> 13x10 ***

Generation = 0, Population = 11.
----0-----
0---------
------0-0-
---0-----0
-------0--
----------
----0-----
-0--------
----------
----------
---------0
-----0----
----------

Generation = 3, Population = 63.
0010-0-0--
---1--000-
-000--1110
110--1-2-1
0---112022
0-0--0-0-1
---0-01100
------00-0
-0------0-
0-0---00--
-0-0-001--
--0-0-010-
---0---00-

Generation = 6, Population = 52.
-----123-0
-0--211---
--30--12-1
--0-1--2--
11--41-03-
3-01-0---1
2-01----1-
00-0-0-1-3
0---0-10--
-0-0-1----
--01-10---
---0-----2
----01----

Generation = 9, Population = 63.
-0---13410
--1--2401-
-0---0-32-
1---230201
12-14-3--3
-00-010---
20---0-1--
--0------4
1--0-0--02
---10-0-00
---411-2--
-003---20-
-----20101

Generation = 12, Population = 49.
-----24543
1-1-5-5---
1-32-0-452
-----6-5--
-3--7-----
3-1-1-0-0-
-1-2--4234
-2-------5
1---2-3---
0-2-1-----
-2--22----
-----1-3-2
00--2-0---

*** Life<FredkinCell> 8x8 ***

Generation = 0, Population = 7.
-----0--
--------
-----0--
---0----
------0-
---0--0-
--------
0-------

Generation = 1, Population = 21.
----0-0-
--------
---00-0-
--0-000-
-----010
--0-0010
0--0--0-
-0------

Generation = 2, Population = 22.
---0---0
---0----
---1-010
-0-0-11-
----01--
00-011--
------1-
--00--0-

Generation = 3, Population = 36.
--010-0-
--0-000-
-00---21
0--102--
0--0-2--
11-12---
000-0-20
-0110010

Generation = 4, Population = 22.
-0---010
---0--1-
-1---0-2
1------0
--0--31-
2-0---10
-----0--
--2-1-2-

Generation = 5, Population = 35.
0-010121
--0-0020
--010-23
--0----1
-01004-0
--11-1-1
0-----20
-0---0-0

Generation = 6, Population = 30.
----123-
00--11-1
-11--0-4
---1-2--
01-1----
2---221-
--00-031
--2-1-21

Generation = 7, Population = 32.
00-1-34-
1--0-222
--2----5
1--2-311
-2-2--1-
3-1133--
00-1----
-031-0--

*** Life<FredkinCell> 8x10 ***

Generation = 0, Population = 1.
------0---
----------
----------
----------
----------
----------
----------
----------

Generation = 2, Population = 4.
----0-0-0-
----------
------0---
----------
----------
----------
----------
----------

Generation = 4, Population = 3.
--0-------
----------
------0---
----------
------0---
----------
----------
----------

*** Life<FredkinCell> 7x12 ***

Generation = 0, Population = 5.
------------
0---------0-
------0-----
------------
------------
------------
------0--0--

Generation = 3, Population = 32.
0-0--0-00---
---00-0010--
--00-0-0100-
-0--0---0--0
0-------0---
----0-000--0
---0--1--1--

*** Life<FredkinCell> 8x11 ***

Generation = 0, Population = 14.
-0---------
-0--00---0-
-0---------
-0---------
-------0-00
-----------
------0-0--
-0-0-------

Generation = 2, Population = 27.
---0-------
-01---1----
-0-0---0-10
-2-000---1-
-1---010-22
---0-------
----0-0001-
-----0-----

Generation = 4, Population = 32.
-----0-0-00
10--12--01-
-----10-0--
---0-0-----
-3-0-01-02-
---001---0-
-00-0-2-0--
-----0-1---

Generation = 6, Population = 32.
---0-200---
3--1-4----0
-1--0------
0----0-00--
--0---3-2-4
-00--110---
122--02--20
----00-----

Generation = 8, Population = 29.
-----20-10-
-133------0
-----3112-2
-2---0---2-
--2-02---24
----21---2-
------2-1--
-1-12------

Generation = 10, Population = 47.
---21-2132-
4--53---012
--12-3-1424
-20100---41
0-2004514--
--2-211--4-
--2--12-13-
--0---1--0-

Generation = 12, Population = 45.
-1---34152-
4-373--1212
-114051-6--
-4-12------
-4----7-64-
112-21--1-1
--2-11-0--2
0---30-20--

*** Life<FredkinCell> 13x7 ***

Generation = 0, Population = 11.
0--0---
------0
-------
0------
-------
-------
0------
------0
-------
0-0---0
-------
-------
--00---

Generation = 1, Population = 29.
-00-0-0
0--0-0-
0-----0
-0-----
0------
0------
-0----0
0----0-
0-0----
---0-0-
0-0---0
--00---
-0110--

Generation = 2, Population = 33.
-110-0-
1---0-0
1--0---
0-0---0
1------
1-----0
0-0----
1-0-0--
1------
--0----
--10---
0-1---0
012210-

Generation = 3, Population = 38.
-2-10--
2-00-0-
-0-----
-----0-
-00----
-00--0-
--100-0
--1--0-
20--0--
001----
00210-0
10-00--
--3--1-

Generation = 4, Population = 28.
--1-1--
--1-0-0
---0---
--0-0-0
1--0---
1-1----
--2-1--
1-2-0--
--00---
1-----0
1-32---
------0
0-----0

Generation = 5, Population = 43.
-22-200
-0201--
--0-0--
00-----
200---0
2-2-0--
-0--20-
---010-
-0-1--0
20---0-
2-430--
--10-01
-1---11

*** Life<FredkinCell> 13x7 ***

Generation = 0, Population = 14.
0------
------0
-0--0--
-00---0
-------
0------
-------
-------
-------
--0-0--
-------
----0--
-00---0

Generation = 2, Population = 31.
-10-0--
-10-1--
1-01--0
---1---
-1--0--
01----0
-------
0-0-0--
-------
0-0---0
-01---0
----0-1
1221---

Generation = 4, Population = 39.
-10----
0-2-3-1
-2---10
111-001
0------
------0
-1--1--
-00-0-0
-00---1
0------
-21---0
1---0-3
322-001

Generation = 6, Population = 48.
0-01201
014-313
241-1-2
1-3-2--
2-1-110
2---110
13-1---
--00--2
0-011--
-1-----
---1112
----2--
3---00-

Generation = 8, Population = 25.
-------
2-6-5--
-------
-33-2-1
--3-3-0
------0
151---0
----1--
0------
--1-0-2
-4--3--
-00---4
-------

*** Life<FredkinCell> 13x11 ***

Generation = 0, Population = 11.
-0---------
0------0---
-----------
-----------
0----------
--------0--
-00--------
---0-------
0---0------
-----------
-----------
----0------
-----------

Generation = 2, Population = 31.
-0-0-------
0-0--0---0-
10---------
1------00--
01---------
---0--0---0
1--0-------
-1---0--0--
010---0----
---01------
0---1------
--0---0----
-----------

Generation = 4, Population = 36.
00---1-----
2-001--01--
--0--------
---0-------
031--------
0---1--1--0
11---11----
----1--1---
--2-1---1--
--------0--
-11--------
1--11---0--
0---0------

Generation = 6, Population = 68.
-2---1-1---
-1-03----10
3-2-10-----
-110-0--1-0
03-0100----
0--21001110
-32----1---
1-1-3001000
----310---0
0--1--012-0
--303---0--
30---1--0-0
-10-2-0----

*** Life<FredkinCell> 11x14 ***

Generation = 0, Population = 15.
--------------
---0----0-----
-0----0-------
--0-----------
--00----------
-------0---0--
-----0-------0
---0----------
---------0----
-0------------
-----------0--

Generation = 2, Population = 37.
-0----0-------
-11--01---0---
--0-0---1-----
0--00--00--0--
0---1-0------0
--11-1-------1
--0----1-0-1-0
-----1-0---0--
-----0-0-----0
--------------
-----------0-0

*** Life<FredkinCell> 6x7 ***

Generation = 0, Population = 8.
-0-----
--0----
-----0-
-0-0-0-
0------
---0---

*** Life<FredkinCell> 5x12 ***

Generation = 0, Population = 6.
------------
----0--0----
---------0--
-----------0
-----00-----

Generation = 4, Population = 17.
-----11--2--
0--11--01--2
------2----1
-------0-3-2
-01-------1-
